…
    Warning: 66 parsing failures.
    row               col expected actual                         file
      1 New variable name 41 chars     40 './beforeAfterVarlabels.txt'
      2 New variable name 41 chars     40 './beforeAfterVarlabels.txt'
      3 New variable name 41 chars     40 './beforeAfterVarlabels.txt'
      4 New variable name 41 chars     40 './beforeAfterVarlabels.txt'
      5 New variable name 41 chars     40 './beforeAfterVarlabels.txt'
    ... ................. ........ ...... ............................
    See problems(...) for more details.

    # A tibble: 66 x 2
       `Old variable name`  `New variable name`    
       <chr>                <chr>                  
     1 tBodyAcc-mean()-X    LinearAccelerationXmean
     2 tBodyAcc-mean()-Y    LinearAccelerationYmean
     3 tBodyAcc-mean()-Z    LinearAccelerationZmean
     4 tBodyAcc-std()-X     LinearAccelerationXstd 
     5 tBodyAcc-std()-Y     LinearAccelerationYstd 
     6 tBodyAcc-std()-Z     LinearAccelerationZstd 
     7 tGravityAcc-mean()-X GravityXmean           
     8 tGravityAcc-mean()-Y GravityYmean           
     9 tGravityAcc-mean()-Z GravityZmean           
    10 tGravityAcc-std()-X  GravityXstd            
    # ... with 56 more rows
